{"url":"\/socialclubhub\/wp-admin\/admin-ajax.php","ip":"::1","pid":4576,"date":"2015-05-09T06:39:26+00:00","theme_name":"C:\\xampp\\htdocs\\socialclubhub\\wp-content\\themes\\socialclubhub\\functions.php","runtime":{"total":7.3524210453033,"wordpress":0.1220076084137,"theme":0.023001670837402,"plugins":2.1571037769318,"profile":4.4102778434753,"breakdown":{"p3-profiler":0.0089995861053467,"LayerSlider":0.020000457763672,"Ultimate_VC_Addons":0.16300582885742,"adminimize":0.053002119064331,"all-in-one-seo-pack":0.059001445770264,"bbpress-like-button":0.032000541687012,"bbpress":0.16700839996338,"category-seo-meta-tags":0.0050010681152344,"club":0.005000114440918,"deals-discount":0.004000186920166,"front-end-registration-and-login":0.014999389648438,"js_composer":1.5390813350677,"merchant_links":0.0040006637573242,"multi-image-metabox":0.0030012130737305,"news":0.0039999485015869,"simple-301-redirects":0.003000020980835,"taxonomy-images":0.0090010166168213,"user-avatar":0.0039999485015869,"wp-change-default-email":0.0030002593994141,"wp-dynamic-sidebar":0.003000020980835,"wp-optimize":0.0060000419616699,"wp-video-lightbox":0.0060007572174072,"wpfront-user-role-editor":0.040999412536621}},"memory":65273856,"stacksize":94023,"queries":41}
{"url":"\/socialclubhub\/my-profile\/","ip":"::1","pid":4576,"date":"2015-05-09T06:39:31+00:00","theme_name":"C:\\xampp\\htdocs\\socialclubhub\\wp-content\\themes\\socialclubhub\\functions.php","runtime":{"total":5.2683019638062,"wordpress":0.18001484870911,"theme":0.085003137588501,"plugins":2.522145986557,"profile":2.1451222896576,"breakdown":{"p3-profiler":0.0040020942687988,"LayerSlider":0.022999286651611,"Ultimate_VC_Addons":1.2770743370056,"adminimize":0.030000925064087,"all-in-one-seo-pack":0.07500147819519,"bbpress-like-button":0.029000759124756,"bbpress":0.2540180683136,"category-seo-meta-tags":0.0080001354217529,"club":0.0080010890960693,"deals-discount":0.002000093460083,"front-end-registration-and-login":0.056004047393799,"js_composer":0.66204023361206,"merchant_links":0.0039999485015869,"multi-image-metabox":0.002000093460083,"news":0.0069999694824219,"simple-301-redirects":0.0039999485015869,"taxonomy-images":0.013000726699829,"user-avatar":0.0040004253387451,"wp-change-default-email":0.0010008811950684,"wp-dynamic-sidebar":0.002000093460083,"wp-optimize":0.005000114440918,"wp-video-lightbox":0.0039999485015869,"wpfront-user-role-editor":0.048001289367676}},"memory":47710208,"stacksize":48361,"queries":85}
{"url":"\/socialclubhub\/change-password\/","ip":"::1","pid":4576,"date":"2015-05-09T06:39:42+00:00","theme_name":"C:\\xampp\\htdocs\\socialclubhub\\wp-content\\themes\\socialclubhub\\functions.php","runtime":{"total":4.8122751712799,"wordpress":0.18200993537903,"theme":0.065003633499146,"plugins":2.4061460494995,"profile":1.9271023273468,"breakdown":{"p3-profiler":0.005000114440918,"LayerSlider":0.013001203536987,"Ultimate_VC_Addons":1.2470746040344,"adminimize":0.018001317977905,"all-in-one-seo-pack":0.081007719039917,"bbpress-like-button":0.022000551223755,"bbpress":0.2300124168396,"category-seo-meta-tags":0.005000114440918,"club":0.0029997825622559,"deals-discount":0.0040006637573242,"front-end-registration-and-login":0.020002603530884,"js_composer":0.66303491592407,"merchant_links":0.002000093460083,"multi-image-metabox":0.0020010471343994,"news":0.0020008087158203,"simple-301-redirects":0.003000020980835,"taxonomy-images":0.01400089263916,"user-avatar":0.0010001659393311,"wp-change-default-email":0.002000093460083,"wp-dynamic-sidebar":0.0010001659393311,"wp-optimize":0.0029997825622559,"wp-video-lightbox":0.005000114440918,"wpfront-user-role-editor":0.060006856918335}},"memory":46137344,"stacksize":44015,"queries":86}
{"url":"\/socialclubhub\/my-clubs\/","ip":"::1","pid":4576,"date":"2015-05-09T06:39:51+00:00","theme_name":"C:\\xampp\\htdocs\\socialclubhub\\wp-content\\themes\\socialclubhub\\functions.php","runtime":{"total":4.9142808914185,"wordpress":0.18401455879211,"theme":0.08900785446167,"plugins":2.4181389808655,"profile":1.9961094856262,"breakdown":{"p3-profiler":0.0080010890960693,"LayerSlider":0.015000820159912,"Ultimate_VC_Addons":1.2940697669983,"adminimize":0.018002986907959,"all-in-one-seo-pack":0.069003343582153,"bbpress-like-button":0.023001670837402,"bbpress":0.22201442718506,"category-seo-meta-tags":0.0060000419616699,"club":0.0080015659332275,"deals-discount":0.005000114440918,"front-end-registration-and-login":0.016000747680664,"js_composer":0.64503884315491,"merchant_links":0.0020003318786621,"multi-image-metabox":0.003000020980835,"news":0.003000020980835,"simple-301-redirects":0.0050008296966553,"taxonomy-images":0.014001131057739,"user-avatar":0.0019998550415039,"wp-change-default-email":0.003000020980835,"wp-dynamic-sidebar":0.00099992752075195,"wp-optimize":0.0059998035430908,"wp-video-lightbox":0.0039997100830078,"wpfront-user-role-editor":0.04600191116333}},"memory":45875200,"stacksize":43572,"queries":86}
{"url":"\/socialclubhub\/my-clubs\/?act=add","ip":"::1","pid":4576,"date":"2015-05-09T06:40:00+00:00","theme_name":"C:\\xampp\\htdocs\\socialclubhub\\wp-content\\themes\\socialclubhub\\functions.php","runtime":{"total":5.0522890090942,"wordpress":0.16701126098633,"theme":0.11900591850281,"plugins":2.5121500492096,"profile":2.0071058273315,"breakdown":{"p3-profiler":0.0060000419616699,"LayerSlider":0.012001037597656,"Ultimate_VC_Addons":1.3080821037292,"adminimize":0.031001567840576,"all-in-one-seo-pack":0.082003831863403,"bbpress-like-button":0.044003009796143,"bbpress":0.2420129776001,"category-seo-meta-tags":0.0070009231567383,"club":0.039003849029541,"deals-discount":0.002000093460083,"front-end-registration-and-login":0.012001276016235,"js_composer":0.63103532791138,"merchant_links":0.003000020980835,"multi-image-metabox":0.0029997825622559,"news":0.0029997825622559,"simple-301-redirects":0.0039999485015869,"taxonomy-images":0.013000011444092,"user-avatar":0.0030002593994141,"wp-change-default-email":0.0030002593994141,"wp-dynamic-sidebar":0.002000093460083,"wp-optimize":0.0040009021759033,"wp-video-lightbox":0.0079998970031738,"wpfront-user-role-editor":0.050003051757812}},"memory":47185920,"stacksize":47086,"queries":88}
{"url":"\/socialclubhub\/wp-admin\/admin-ajax.php","ip":"::1","pid":4576,"date":"2015-05-09T06:40:12+00:00","theme_name":"C:\\xampp\\htdocs\\socialclubhub\\wp-content\\themes\\socialclubhub\\functions.php","runtime":{"total":7.0134010314941,"wordpress":0.1340069770813,"theme":0.024001121520996,"plugins":2.0461201667786,"profile":4.228232383728,"breakdown":{"p3-profiler":0.0090000629425049,"LayerSlider":0.022000312805176,"Ultimate_VC_Addons":0.16101050376892,"adminimize":0.046002864837646,"all-in-one-seo-pack":0.051008224487305,"bbpress-like-button":0.026001453399658,"bbpress":0.16800618171692,"category-seo-meta-tags":0.0049998760223389,"club":0.0069999694824219,"deals-discount":0.0020010471343994,"front-end-registration-and-login":0.019001245498657,"js_composer":1.4360842704773,"merchant_links":0.004000186920166,"multi-image-metabox":0.004000186920166,"news":0.0039999485015869,"simple-301-redirects":0.0080010890960693,"taxonomy-images":0.01099967956543,"user-avatar":0.0099997520446777,"wp-change-default-email":0.0040009021759033,"wp-dynamic-sidebar":0.0019998550415039,"wp-optimize":0.0029997825622559,"wp-video-lightbox":0.003000020980835,"wpfront-user-role-editor":0.041002750396729}},"memory":64749568,"stacksize":94023,"queries":42}
{"url":"\/socialclubhub\/wp-admin\/admin-ajax.php","ip":"::1","pid":4576,"date":"2015-05-09T06:40:22+00:00","theme_name":"C:\\xampp\\htdocs\\socialclubhub\\wp-content\\themes\\socialclubhub\\functions.php","runtime":{"total":6.7393848896027,"wordpress":0.14700889587402,"theme":0.1660099029541,"plugins":2.052134513855,"profile":3.812194108963,"breakdown":{"p3-profiler":0.0080010890960693,"LayerSlider":0.027000427246094,"Ultimate_VC_Addons":0.17601013183594,"adminimize":0.075006484985352,"all-in-one-seo-pack":0.079005241394043,"bbpress-like-button":0.032001972198486,"bbpress":0.21101474761963,"category-seo-meta-tags":0.0090000629425049,"club":0.0040011405944824,"deals-discount":0.0039999485015869,"front-end-registration-and-login":0.018001556396484,"js_composer":1.3170862197876,"merchant_links":0.003000020980835,"multi-image-metabox":0.0040009021759033,"news":0.005000114440918,"simple-301-redirects":0.0049998760223389,"taxonomy-images":0.0060000419616699,"user-avatar":0.0019998550415039,"wp-change-default-email":0.0030002593994141,"wp-dynamic-sidebar":0.0030002593994141,"wp-optimize":0.0060009956359863,"wp-video-lightbox":0.005000114440918,"wpfront-user-role-editor":0.050003051757812}},"memory":65011712,"stacksize":94023,"queries":41}
{"url":"\/socialclubhub\/my-merchants\/","ip":"::1","pid":4576,"date":"2015-05-09T06:40:44+00:00","theme_name":"C:\\xampp\\htdocs\\socialclubhub\\wp-content\\themes\\socialclubhub\\functions.php","runtime":{"total":5.0892908573151,"wordpress":0.18201088905334,"theme":0.079005241394043,"plugins":2.590151309967,"profile":2.0121188163757,"breakdown":{"p3-profiler":0.0039999485015869,"LayerSlider":0.017001152038574,"Ultimate_VC_Addons":1.4390797615051,"adminimize":0.023002147674561,"all-in-one-seo-pack":0.081001758575439,"bbpress-like-button":0.023000717163086,"bbpress":0.22600936889648,"category-seo-meta-tags":0.0060000419616699,"club":0.0049998760223389,"deals-discount":0.003000020980835,"front-end-registration-and-login":0.016000986099243,"js_composer":0.65505146980286,"merchant_links":0.0049998760223389,"multi-image-metabox":0.002000093460083,"news":0.006000280380249,"simple-301-redirects":0.0050010681152344,"taxonomy-images":0.013000965118408,"user-avatar":0.0030009746551514,"wp-change-default-email":0.0019998550415039,"wp-dynamic-sidebar":0.003000020980835,"wp-optimize":0.0039999485015869,"wp-video-lightbox":0.0070011615753174,"wpfront-user-role-editor":0.041999816894531}},"memory":45875200,"stacksize":43575,"queries":86}
{"url":"\/socialclubhub\/my-merchants\/?act=add","ip":"::1","pid":4576,"date":"2015-05-09T06:40:52+00:00","theme_name":"C:\\xampp\\htdocs\\socialclubhub\\wp-content\\themes\\socialclubhub\\functions.php","runtime":{"total":5.2633008956909,"wordpress":0.16501045227051,"theme":0.09500527381897,"plugins":2.6631524562836,"profile":2.0841126441956,"breakdown":{"p3-profiler":0.0060005187988281,"LayerSlider":0.012000322341919,"Ultimate_VC_Addons":1.4800879955292,"adminimize":0.024000406265259,"all-in-one-seo-pack":0.09700608253479,"bbpress-like-button":0.023002147674561,"bbpress":0.21500849723816,"category-seo-meta-tags":0.0060000419616699,"club":0.0049998760223389,"deals-discount":0.0030009746551514,"front-end-registration-and-login":0.01900053024292,"js_composer":0.61403203010559,"merchant_links":0.061004877090454,"multi-image-metabox":0.0040009021759033,"news":0.0060012340545654,"simple-301-redirects":0.005000114440918,"taxonomy-images":0.014001131057739,"user-avatar":0.003000020980835,"wp-change-default-email":0.0020010471343994,"wp-dynamic-sidebar":0.002000093460083,"wp-optimize":0.0079998970031738,"wp-video-lightbox":0.007000207901001,"wpfront-user-role-editor":0.047003507614136}},"memory":47185920,"stacksize":46990,"queries":88}
{"url":"\/socialclubhub\/activities\/","ip":"::1","pid":4576,"date":"2015-05-09T06:41:03+00:00","theme_name":"C:\\xampp\\htdocs\\socialclubhub\\wp-content\\themes\\socialclubhub\\functions.php","runtime":{"total":4.4782559871674,"wordpress":0.14900851249695,"theme":0.086003541946411,"plugins":2.1201136112213,"profile":1.9001085758209,"breakdown":{"p3-profiler":0.0019998550415039,"LayerSlider":0.016000986099243,"Ultimate_VC_Addons":1.045060634613,"adminimize":0.022002458572388,"all-in-one-seo-pack":0.090004205703735,"bbpress-like-button":0.025000810623169,"bbpress":0.22301363945007,"category-seo-meta-tags":0.0050003528594971,"club":0.017001152038574,"deals-discount":0.0049998760223389,"front-end-registration-and-login":0.014001131057739,"js_composer":0.55702066421509,"merchant_links":0.0019998550415039,"multi-image-metabox":0.004000186920166,"news":0.0039999485015869,"simple-301-redirects":0.003000020980835,"taxonomy-images":0.017001152038574,"user-avatar":0.0050013065338135,"wp-change-default-email":0.003000020980835,"wp-dynamic-sidebar":0.00099992752075195,"wp-optimize":0.0039999485015869,"wp-video-lightbox":0.0070009231567383,"wpfront-user-role-editor":0.049004554748535}},"memory":46137344,"stacksize":43873,"queries":96}
{"url":"\/socialclubhub\/activities\/arts-crafts\/","ip":"::1","pid":4576,"date":"2015-05-09T06:41:13+00:00","theme_name":"C:\\xampp\\htdocs\\socialclubhub\\wp-content\\themes\\socialclubhub\\functions.php","runtime":{"total":4.9302818775177,"wordpress":0.20601201057434,"theme":0.10600447654724,"plugins":2.3791477680206,"profile":1.9881064891815,"breakdown":{"p3-profiler":0.008000373840332,"LayerSlider":0.021001577377319,"Ultimate_VC_Addons":1.1900742053986,"adminimize":0.028002262115479,"all-in-one-seo-pack":0.071003437042236,"bbpress-like-button":0.033001899719238,"bbpress":0.27101635932922,"category-seo-meta-tags":0.0080006122589111,"club":0.0060000419616699,"deals-discount":0.0030019283294678,"front-end-registration-and-login":0.019001245498657,"js_composer":0.62003993988037,"merchant_links":0.0040011405944824,"multi-image-metabox":0.00099992752075195,"news":0.0060007572174072,"simple-301-redirects":0.0049998760223389,"taxonomy-images":0.016000986099243,"user-avatar":0.0060000419616699,"wp-change-default-email":0.002000093460083,"wp-dynamic-sidebar":0.0019998550415039,"wp-optimize":0.0049998760223389,"wp-video-lightbox":0.0049996376037598,"wpfront-user-role-editor":0.049001693725586}},"memory":45875200,"stacksize":42869,"queries":86}
{"url":"\/socialclubhub\/club\/zxzxzx\/","ip":"::1","pid":4576,"date":"2015-05-09T06:41:25+00:00","theme_name":"C:\\xampp\\htdocs\\socialclubhub\\wp-content\\themes\\socialclubhub\\functions.php","runtime":{"total":7.7984459400177,"wordpress":0.21501731872559,"theme":0.13200879096985,"plugins":4.2002317905426,"profile":2.8591673374176,"breakdown":{"p3-profiler":0.0080001354217529,"LayerSlider":0.022001028060913,"Ultimate_VC_Addons":2.5151450634003,"adminimize":0.033000946044922,"all-in-one-seo-pack":0.12100601196289,"bbpress-like-button":0.031003475189209,"bbpress":0.3500189781189,"category-seo-meta-tags":0.0069999694824219,"club":0.0080006122589111,"deals-discount":0.005000114440918,"front-end-registration-and-login":0.024001836776733,"js_composer":0.89504289627075,"merchant_links":0.002000093460083,"multi-image-metabox":0.003000020980835,"news":0.005000114440918,"simple-301-redirects":0.0030009746551514,"taxonomy-images":0.023000955581665,"user-avatar":0.07100510597229,"wp-change-default-email":0.0020008087158203,"wp-dynamic-sidebar":0.003000020980835,"wp-optimize":0.0059998035430908,"wp-video-lightbox":0.0070011615753174,"wpfront-user-role-editor":0.056001663208008}},"memory":45875200,"stacksize":43151,"queries":92}
