{"url":"\/socialclubhub\/wp-admin\/admin-ajax.php","ip":"::1","pid":4576,"date":"2015-05-09T06:28:35+00:00","theme_name":"C:\\xampp\\htdocs\\socialclubhub\\wp-content\\themes\\socialclubhub\\functions.php","runtime":{"total":6.5423741340637,"wordpress":0.16200733184814,"theme":0.024002075195312,"plugins":1.9831254482269,"profile":3.9202237129211,"breakdown":{"p3-profiler":0.0059998035430908,"LayerSlider":0.023000955581665,"Ultimate_VC_Addons":0.14501190185547,"adminimize":0.074005842208862,"all-in-one-seo-pack":0.076006650924683,"bbpress-like-button":0.030000925064087,"bbpress":0.20901012420654,"category-seo-meta-tags":0.0060009956359863,"club":0.005000114440918,"deals-discount":0.003000020980835,"front-end-registration-and-login":0.013000011444092,"js_composer":1.301079750061,"merchant_links":0.00099992752075195,"multi-image-metabox":0.003000020980835,"news":0.0040011405944824,"simple-301-redirects":0.0050010681152344,"taxonomy-images":0.0060000419616699,"user-avatar":0.005000114440918,"wp-change-default-email":0.0030002593994141,"wp-dynamic-sidebar":0.00099992752075195,"wp-video-lightbox":0.004000186920166,"wpfront-user-role-editor":0.060005664825439}},"memory":65011712,"stacksize":93942,"queries":42}
{"url":"\/socialclubhub\/my-profile\/","ip":"::1","pid":4576,"date":"2015-05-09T06:28:47+00:00","theme_name":"C:\\xampp\\htdocs\\socialclubhub\\wp-content\\themes\\socialclubhub\\functions.php","runtime":{"total":5.0042860507965,"wordpress":0.17701029777527,"theme":0.17700934410095,"plugins":2.2911355495453,"profile":2.1251187324524,"breakdown":{"p3-profiler":0.0040020942687988,"LayerSlider":0.0090007781982422,"Ultimate_VC_Addons":1.1950688362122,"adminimize":0.021998882293701,"all-in-one-seo-pack":0.072003126144409,"bbpress-like-button":0.029001235961914,"bbpress":0.24101424217224,"category-seo-meta-tags":0.005000114440918,"club":0.003000020980835,"deals-discount":0.0040011405944824,"front-end-registration-and-login":0.048003911972046,"js_composer":0.57403516769409,"merchant_links":0.002000093460083,"multi-image-metabox":0.003000020980835,"news":0.005000114440918,"simple-301-redirects":0.0039999485015869,"taxonomy-images":0.01400089263916,"user-avatar":0.0019998550415039,"wp-change-default-email":0.0030009746551514,"wp-dynamic-sidebar":0.002000093460083,"wp-video-lightbox":0.0060000419616699,"wpfront-user-role-editor":0.044003963470459}},"memory":47710208,"stacksize":48280,"queries":89}
{"url":"\/socialclubhub\/change-password\/","ip":"::1","pid":4576,"date":"2015-05-09T06:28:58+00:00","theme_name":"C:\\xampp\\htdocs\\socialclubhub\\wp-content\\themes\\socialclubhub\\functions.php","runtime":{"total":5.1342940330505,"wordpress":0.16701197624207,"theme":0.078005075454712,"plugins":2.8001616001129,"profile":1.8441004753113,"breakdown":{"p3-profiler":0.0050010681152344,"LayerSlider":0.010001420974731,"Ultimate_VC_Addons":1.7260961532593,"adminimize":0.028002977371216,"all-in-one-seo-pack":0.083008289337158,"bbpress-like-button":0.024000883102417,"bbpress":0.22001218795776,"category-seo-meta-tags":0.0049998760223389,"club":0.005000114440918,"deals-discount":0.0019998550415039,"front-end-registration-and-login":0.01400089263916,"js_composer":0.59603548049927,"merchant_links":0.0039999485015869,"multi-image-metabox":0.003000020980835,"news":0.0069994926452637,"simple-301-redirects":0.0039999485015869,"taxonomy-images":0.014999866485596,"user-avatar":0.002000093460083,"wp-change-default-email":0.00099992752075195,"wp-dynamic-sidebar":0.002000093460083,"wp-video-lightbox":0.002000093460083,"wpfront-user-role-editor":0.04200291633606}},"memory":45875200,"stacksize":43934,"queries":87}
{"url":"\/socialclubhub\/my-clubs\/","ip":"::1","pid":4576,"date":"2015-05-09T06:29:09+00:00","theme_name":"C:\\xampp\\htdocs\\socialclubhub\\wp-content\\themes\\socialclubhub\\functions.php","runtime":{"total":4.9272818565369,"wordpress":0.19001150131226,"theme":0.088005781173706,"plugins":2.4991400241852,"profile":1.9001080989838,"breakdown":{"p3-profiler":0.0060021877288818,"LayerSlider":0.01500129699707,"Ultimate_VC_Addons":1.3910779953003,"adminimize":0.025999784469604,"all-in-one-seo-pack":0.083005428314209,"bbpress-like-button":0.024000883102417,"bbpress":0.24600791931152,"category-seo-meta-tags":0.005000114440918,"club":0.0090000629425049,"deals-discount":0.0019998550415039,"front-end-registration-and-login":0.018000841140747,"js_composer":0.599041223526,"merchant_links":0.00099992752075195,"multi-image-metabox":0.003000020980835,"news":0.0049998760223389,"simple-301-redirects":0.003000020980835,"taxonomy-images":0.012001514434814,"user-avatar":0.0029997825622559,"wp-change-default-email":0.0020010471343994,"wp-dynamic-sidebar":0.0029997825622559,"wp-video-lightbox":0.004000186920166,"wpfront-user-role-editor":0.039000272750854}},"memory":45875200,"stacksize":43491,"queries":87}
{"url":"\/socialclubhub\/my-clubs\/?act=add","ip":"::1","pid":4576,"date":"2015-05-09T06:29:21+00:00","theme_name":"C:\\xampp\\htdocs\\socialclubhub\\wp-content\\themes\\socialclubhub\\functions.php","runtime":{"total":4.7272708415985,"wordpress":0.15801167488098,"theme":0.091003894805908,"plugins":2.3451254367828,"profile":1.9141147136688,"breakdown":{"p3-profiler":0.0039997100830078,"LayerSlider":0.014001369476318,"Ultimate_VC_Addons":1.2880682945251,"adminimize":0.022000789642334,"all-in-one-seo-pack":0.060004711151123,"bbpress-like-button":0.025001764297485,"bbpress":0.21500754356384,"category-seo-meta-tags":0.0059998035430908,"club":0.042001485824585,"deals-discount":0.002000093460083,"front-end-registration-and-login":0.014000654220581,"js_composer":0.58003497123718,"merchant_links":0.0019998550415039,"multi-image-metabox":0.0030009746551514,"news":0.0029997825622559,"simple-301-redirects":0.003000020980835,"taxonomy-images":0.011001110076904,"user-avatar":0.0030009746551514,"wp-change-default-email":0.002000093460083,"wp-dynamic-sidebar":0.0020003318786621,"wp-video-lightbox":0.0030002593994141,"wpfront-user-role-editor":0.041000843048096}},"memory":47448064,"stacksize":47005,"queries":89}
{"url":"\/socialclubhub\/my-merchants\/","ip":"::1","pid":4576,"date":"2015-05-09T06:29:32+00:00","theme_name":"C:\\xampp\\htdocs\\socialclubhub\\wp-content\\themes\\socialclubhub\\functions.php","runtime":{"total":4.7392718791962,"wordpress":0.1920063495636,"theme":0.086003303527832,"plugins":2.3581366539001,"profile":1.8601078987122,"breakdown":{"p3-profiler":0.0040013790130615,"LayerSlider":0.018001556396484,"Ultimate_VC_Addons":1.3130745887756,"adminimize":0.019001245498657,"all-in-one-seo-pack":0.088002681732178,"bbpress-like-button":0.027001619338989,"bbpress":0.24401593208313,"category-seo-meta-tags":0.0049998760223389,"club":0.0049998760223389,"deals-discount":0.0040011405944824,"front-end-registration-and-login":0.010000228881836,"js_composer":0.5450336933136,"merchant_links":0.0019998550415039,"multi-image-metabox":0.003000020980835,"news":0.003000020980835,"simple-301-redirects":0.0030009746551514,"taxonomy-images":0.014001131057739,"user-avatar":0.00099992752075195,"wp-change-default-email":0.00099992752075195,"wp-dynamic-sidebar":0.00099992752075195,"wp-video-lightbox":0.004000186920166,"wpfront-user-role-editor":0.044000864028931}},"memory":45875200,"stacksize":43494,"queries":87}
{"url":"\/socialclubhub\/my-merchants\/?act=add","ip":"::1","pid":4576,"date":"2015-05-09T06:29:41+00:00","theme_name":"C:\\xampp\\htdocs\\socialclubhub\\wp-content\\themes\\socialclubhub\\functions.php","runtime":{"total":6.786388874054,"wordpress":0.32401943206787,"theme":0.20801138877869,"plugins":2.8601586818695,"profile":2.9681797027588,"breakdown":{"p3-profiler":0.0060009956359863,"LayerSlider":0.040003538131714,"Ultimate_VC_Addons":1.1080641746521,"adminimize":0.056003093719482,"all-in-one-seo-pack":0.1620078086853,"bbpress-like-button":0.053003072738647,"bbpress":0.39202165603638,"category-seo-meta-tags":0.0080001354217529,"club":0.004000186920166,"deals-discount":0.0040011405944824,"front-end-registration-and-login":0.015000104904175,"js_composer":0.81004571914673,"merchant_links":0.094002962112427,"multi-image-metabox":0.0039999485015869,"news":0.0090007781982422,"simple-301-redirects":0.003000020980835,"taxonomy-images":0.023000717163086,"user-avatar":0.006000280380249,"wp-change-default-email":0.0010001659393311,"wp-dynamic-sidebar":0.00099992752075195,"wp-video-lightbox":0.0049996376037598,"wpfront-user-role-editor":0.056002616882324}},"memory":46923776,"stacksize":46909,"queries":88}
{"url":"\/socialclubhub\/activities\/arts-crafts\/","ip":"::1","pid":4576,"date":"2015-05-09T06:29:52+00:00","theme_name":"C:\\xampp\\htdocs\\socialclubhub\\wp-content\\themes\\socialclubhub\\functions.php","runtime":{"total":7.5914349555969,"wordpress":0.17400693893433,"theme":0.1130051612854,"plugins":3.1981709003448,"profile":3.5492141246796,"breakdown":{"p3-profiler":0.0030009746551514,"LayerSlider":0.017002582550049,"Ultimate_VC_Addons":1.2200644016266,"adminimize":0.030001401901245,"all-in-one-seo-pack":0.093003273010254,"bbpress-like-button":0.067003011703491,"bbpress":0.28801298141479,"category-seo-meta-tags":0.0080006122589111,"club":0.0069999694824219,"deals-discount":0.003000020980835,"front-end-registration-and-login":0.018002271652222,"js_composer":1.3440701961517,"merchant_links":0.0030007362365723,"multi-image-metabox":0.0039999485015869,"news":0.0060007572174072,"simple-301-redirects":0.0050010681152344,"taxonomy-images":0.017000913619995,"user-avatar":0.0030002593994141,"wp-change-default-email":0.002000093460083,"wp-dynamic-sidebar":0,"wp-video-lightbox":0.0069999694824219,"wpfront-user-role-editor":0.053005456924438}},"memory":45613056,"stacksize":42791,"queries":84}
{"url":"\/socialclubhub\/activities\/","ip":"::1","pid":4576,"date":"2015-05-09T06:30:07+00:00","theme_name":"C:\\xampp\\htdocs\\socialclubhub\\wp-content\\themes\\socialclubhub\\functions.php","runtime":{"total":4.5912630558014,"wordpress":0.17401123046875,"theme":0.085006237030029,"plugins":2.2671227455139,"profile":1.8401165008545,"breakdown":{"p3-profiler":0.0060012340545654,"LayerSlider":0.011000394821167,"Ultimate_VC_Addons":1.11106300354,"adminimize":0.020001411437988,"all-in-one-seo-pack":0.083003044128418,"bbpress-like-button":0.024001121520996,"bbpress":0.24101328849792,"category-seo-meta-tags":0.0099999904632568,"club":0.025001525878906,"deals-discount":0.003000020980835,"front-end-registration-and-login":0.016000986099243,"js_composer":0.63003039360046,"merchant_links":0.00099992752075195,"multi-image-metabox":0.0029997825622559,"news":0.0030012130737305,"simple-301-redirects":0.0060000419616699,"taxonomy-images":0.018000841140747,"user-avatar":0.002000093460083,"wp-change-default-email":0.002000093460083,"wp-dynamic-sidebar":0.0020010471343994,"wp-video-lightbox":0.0080008506774902,"wpfront-user-role-editor":0.042002439498901}},"memory":46399488,"stacksize":43789,"queries":97}
